^D:\GITREPO\TOWERDEFENCE\TOWERDEFENSE\TOWERDEFENSE\BIGTURRET.CPP
/c /I"C:\USERS\CONEA\DESKTOP\SFML-2.5.1\INCLUDE" /Zi /nologo /W3 /WX- /diagnostics:classic /sdl /O2 /Oi /Oy- /GL /D _MBCS /Gm- /EHsc /MD /GS /Gy /fp:precise /permissive- /Zc:wchar_t /Zc:forScope /Zc:inline /Fo"RELEASE\\" /Fd"RELEASE\VC141.PDB" /Gd /TP /analyze- /FC D:\GITREPO\TOWERDEFENCE\TOWERDEFENSE\TOWERDEFENSE\BIGTURRET.CPP
^D:\GITREPO\TOWERDEFENCE\TOWERDEFENSE\TOWERDEFENSE\BOSSENEMY.CPP
/c /I"C:\USERS\CONEA\DESKTOP\SFML-2.5.1\INCLUDE" /Zi /nologo /W3 /WX- /diagnostics:classic /sdl /O2 /Oi /Oy- /GL /D _MBCS /Gm- /EHsc /MD /GS /Gy /fp:precise /permissive- /Zc:wchar_t /Zc:forScope /Zc:inline /Fo"RELEASE\\" /Fd"RELEASE\VC141.PDB" /Gd /TP /analyze- /FC D:\GITREPO\TOWERDEFENCE\TOWERDEFENSE\TOWERDEFENSE\BOSSENEMY.CPP
^D:\GITREPO\TOWERDEFENCE\TOWERDEFENSE\TOWERDEFENSE\ENEMY.CPP
/c /I"C:\USERS\CONEA\DESKTOP\SFML-2.5.1\INCLUDE" /Zi /nologo /W3 /WX- /diagnostics:classic /sdl /O2 /Oi /Oy- /GL /D _MBCS /Gm- /EHsc /MD /GS /Gy /fp:precise /permissive- /Zc:wchar_t /Zc:forScope /Zc:inline /Fo"RELEASE\\" /Fd"RELEASE\VC141.PDB" /Gd /TP /analyze- /FC D:\GITREPO\TOWERDEFENCE\TOWERDEFENSE\TOWERDEFENSE\ENEMY.CPP
^D:\GITREPO\TOWERDEFENCE\TOWERDEFENSE\TOWERDEFENSE\FASTENEMY.CPP
/c /I"C:\USERS\CONEA\DESKTOP\SFML-2.5.1\INCLUDE" /Zi /nologo /W3 /WX- /diagnostics:classic /sdl /O2 /Oi /Oy- /GL /D _MBCS /Gm- /EHsc /MD /GS /Gy /fp:precise /permissive- /Zc:wchar_t /Zc:forScope /Zc:inline /Fo"RELEASE\\" /Fd"RELEASE\VC141.PDB" /Gd /TP /analyze- /FC D:\GITREPO\TOWERDEFENCE\TOWERDEFENSE\TOWERDEFENSE\FASTENEMY.CPP
^D:\GITREPO\TOWERDEFENCE\TOWERDEFENSE\TOWERDEFENSE\GAMEDIRECTOR.CPP
/c /I"C:\USERS\CONEA\DESKTOP\SFML-2.5.1\INCLUDE" /Zi /nologo /W3 /WX- /diagnostics:classic /sdl /O2 /Oi /Oy- /GL /D _MBCS /Gm- /EHsc /MD /GS /Gy /fp:precise /permissive- /Zc:wchar_t /Zc:forScope /Zc:inline /Fo"RELEASE\\" /Fd"RELEASE\VC141.PDB" /Gd /TP /analyze- /FC D:\GITREPO\TOWERDEFENCE\TOWERDEFENSE\TOWERDEFENSE\GAMEDIRECTOR.CPP
^D:\GITREPO\TOWERDEFENCE\TOWERDEFENSE\TOWERDEFENSE\GAMESTATE.CPP
/c /I"C:\USERS\CONEA\DESKTOP\SFML-2.5.1\INCLUDE" /Zi /nologo /W3 /WX- /diagnostics:classic /sdl /O2 /Oi /Oy- /GL /D _MBCS /Gm- /EHsc /MD /GS /Gy /fp:precise /permissive- /Zc:wchar_t /Zc:forScope /Zc:inline /Fo"RELEASE\\" /Fd"RELEASE\VC141.PDB" /Gd /TP /analyze- /FC D:\GITREPO\TOWERDEFENCE\TOWERDEFENSE\TOWERDEFENSE\GAMESTATE.CPP
^D:\GITREPO\TOWERDEFENCE\TOWERDEFENSE\TOWERDEFENSE\MAIN.CPP
/c /I"C:\USERS\CONEA\DESKTOP\SFML-2.5.1\INCLUDE" /Zi /nologo /W3 /WX- /diagnostics:classic /sdl /O2 /Oi /Oy- /GL /D _MBCS /Gm- /EHsc /MD /GS /Gy /fp:precise /permissive- /Zc:wchar_t /Zc:forScope /Zc:inline /Fo"RELEASE\\" /Fd"RELEASE\VC141.PDB" /Gd /TP /analyze- /FC D:\GITREPO\TOWERDEFENCE\TOWERDEFENSE\TOWERDEFENSE\MAIN.CPP
^D:\GITREPO\TOWERDEFENCE\TOWERDEFENSE\TOWERDEFENSE\MEDIUMTURRET.CPP
/c /I"C:\USERS\CONEA\DESKTOP\SFML-2.5.1\INCLUDE" /Zi /nologo /W3 /WX- /diagnostics:classic /sdl /O2 /Oi /Oy- /GL /D _MBCS /Gm- /EHsc /MD /GS /Gy /fp:precise /permissive- /Zc:wchar_t /Zc:forScope /Zc:inline /Fo"RELEASE\\" /Fd"RELEASE\VC141.PDB" /Gd /TP /analyze- /FC D:\GITREPO\TOWERDEFENCE\TOWERDEFENSE\TOWERDEFENSE\MEDIUMTURRET.CPP
^D:\GITREPO\TOWERDEFENCE\TOWERDEFENSE\TOWERDEFENSE\NORMALENEMY.CPP
/c /I"C:\USERS\CONEA\DESKTOP\SFML-2.5.1\INCLUDE" /Zi /nologo /W3 /WX- /diagnostics:classic /sdl /O2 /Oi /Oy- /GL /D _MBCS /Gm- /EHsc /MD /GS /Gy /fp:precise /permissive- /Zc:wchar_t /Zc:forScope /Zc:inline /Fo"RELEASE\\" /Fd"RELEASE\VC141.PDB" /Gd /TP /analyze- /FC D:\GITREPO\TOWERDEFENCE\TOWERDEFENSE\TOWERDEFENSE\NORMALENEMY.CPP
^D:\GITREPO\TOWERDEFENCE\TOWERDEFENSE\TOWERDEFENSE\PLAYER.CPP
/c /I"C:\USERS\CONEA\DESKTOP\SFML-2.5.1\INCLUDE" /Zi /nologo /W3 /WX- /diagnostics:classic /sdl /O2 /Oi /Oy- /GL /D _MBCS /Gm- /EHsc /MD /GS /Gy /fp:precise /permissive- /Zc:wchar_t /Zc:forScope /Zc:inline /Fo"RELEASE\\" /Fd"RELEASE\VC141.PDB" /Gd /TP /analyze- /FC D:\GITREPO\TOWERDEFENCE\TOWERDEFENSE\TOWERDEFENSE\PLAYER.CPP
^D:\GITREPO\TOWERDEFENCE\TOWERDEFENSE\TOWERDEFENSE\SMALLTURRET.CPP
/c /I"C:\USERS\CONEA\DESKTOP\SFML-2.5.1\INCLUDE" /Zi /nologo /W3 /WX- /diagnostics:classic /sdl /O2 /Oi /Oy- /GL /D _MBCS /Gm- /EHsc /MD /GS /Gy /fp:precise /permissive- /Zc:wchar_t /Zc:forScope /Zc:inline /Fo"RELEASE\\" /Fd"RELEASE\VC141.PDB" /Gd /TP /analyze- /FC D:\GITREPO\TOWERDEFENCE\TOWERDEFENSE\TOWERDEFENSE\SMALLTURRET.CPP
^D:\GITREPO\TOWERDEFENCE\TOWERDEFENSE\TOWERDEFENSE\STRONGENEMY.CPP
/c /I"C:\USERS\CONEA\DESKTOP\SFML-2.5.1\INCLUDE" /Zi /nologo /W3 /WX- /diagnostics:classic /sdl /O2 /Oi /Oy- /GL /D _MBCS /Gm- /EHsc /MD /GS /Gy /fp:precise /permissive- /Zc:wchar_t /Zc:forScope /Zc:inline /Fo"RELEASE\\" /Fd"RELEASE\VC141.PDB" /Gd /TP /analyze- /FC D:\GITREPO\TOWERDEFENCE\TOWERDEFENSE\TOWERDEFENSE\STRONGENEMY.CPP
^D:\GITREPO\TOWERDEFENCE\TOWERDEFENSE\TOWERDEFENSE\TURRETS.CPP
/c /I"C:\USERS\CONEA\DESKTOP\SFML-2.5.1\INCLUDE" /Zi /nologo /W3 /WX- /diagnostics:classic /sdl /O2 /Oi /Oy- /GL /D _MBCS /Gm- /EHsc /MD /GS /Gy /fp:precise /permissive- /Zc:wchar_t /Zc:forScope /Zc:inline /Fo"RELEASE\\" /Fd"RELEASE\VC141.PDB" /Gd /TP /analyze- /FC D:\GITREPO\TOWERDEFENCE\TOWERDEFENSE\TOWERDEFENSE\TURRETS.CPP
