^D:\GITREPO\TOWERDEFENSE\TOWERDEFENSE\TOWERDEFENSE\X64\DEBUG\BIGTURRET.OBJ|D:\GITREPO\TOWERDEFENSE\TOWERDEFENSE\TOWERDEFENSE\X64\DEBUG\BOSSENEMY.OBJ|D:\GITREPO\TOWERDEFENSE\TOWERDEFENSE\TOWERDEFENSE\X64\DEBUG\ENEMY.OBJ|D:\GITREPO\TOWERDEFENSE\TOWERDEFENSE\TOWERDEFENSE\X64\DEBUG\FASTENEMY.OBJ|D:\GITREPO\TOWERDEFENSE\TOWERDEFENSE\TOWERDEFENSE\X64\DEBUG\GAMEDIRECTOR.OBJ|D:\GITREPO\TOWERDEFENSE\TOWERDEFENSE\TOWERDEFENSE\X64\DEBUG\GAMESTATE.OBJ|D:\GITREPO\TOWERDEFENSE\TOWERDEFENSE\TOWERDEFENSE\X64\DEBUG\LOGGING.LIB|D:\GITREPO\TOWERDEFENSE\TOWERDEFENSE\TOWERDEFENSE\X64\DEBUG\MAIN.OBJ|D:\GITREPO\TOWERDEFENSE\TOWERDEFENSE\TOWERDEFENSE\X64\DEBUG\MEDIUMTURRET.OBJ|D:\GITREPO\TOWERDEFENSE\TOWERDEFENSE\TOWERDEFENSE\X64\DEBUG\NORMALENEMY.OBJ|D:\GITREPO\TOWERDEFENSE\TOWERDEFENSE\TOWERDEFENSE\X64\DEBUG\PLAYER.OBJ|D:\GITREPO\TOWERDEFENSE\TOWERDEFENSE\TOWERDEFENSE\X64\DEBUG\SMALLTURRET.OBJ|D:\GITREPO\TOWERDEFENSE\TOWERDEFENSE\TOWERDEFENSE\X64\DEBUG\STRONGENEMY.OBJ|D:\GITREPO\TOWERDEFENSE\TOWERDEFENSE\TOWERDEFENSE\X64\DEBUG\TURRETS.OBJ
D:\GITREPO\TOWERDEFENSE\TOWERDEFENSE\TOWERDEFENSE\SFML\LIB\SFML-SYSTEM-D.LIB
D:\GITREPO\TOWERDEFENSE\TOWERDEFENSE\TOWERDEFENSE\SFML\LIB\SFML-GRAPHICS-D.LIB
D:\GITREPO\TOWERDEFENSE\TOWERDEFENSE\TOWERDEFENSE\SFML\LIB\SFML-AUDIO-D.LIB
D:\GITREPO\TOWERDEFENSE\TOWERDEFENSE\TOWERDEFENSE\SFML\LIB\SFML-NETWORK-D.LIB
D:\GITREPO\TOWERDEFENSE\TOWERDEFENSE\TOWERDEFENSE\SFML\LIB\SFML-WINDOW-D.LIB
C:\PROGRAM FILES (X86)\WINDOWS KITS\10\LIB\10.0.17134.0\UM\X64\KERNEL32.LIB
C:\PROGRAM FILES (X86)\WINDOWS KITS\10\LIB\10.0.17134.0\UM\X64\USER32.LIB
C:\PROGRAM FILES (X86)\WINDOWS KITS\10\LIB\10.0.17134.0\UM\X64\GDI32.LIB
C:\PROGRAM FILES (X86)\WINDOWS KITS\10\LIB\10.0.17134.0\UM\X64\WINSPOOL.LIB
C:\PROGRAM FILES (X86)\WINDOWS KITS\10\LIB\10.0.17134.0\UM\X64\COMDLG32.LIB
C:\PROGRAM FILES (X86)\WINDOWS KITS\10\LIB\10.0.17134.0\UM\X64\ADVAPI32.LIB
C:\PROGRAM FILES (X86)\WINDOWS KITS\10\LIB\10.0.17134.0\UM\X64\SHELL32.LIB
C:\PROGRAM FILES (X86)\WINDOWS KITS\10\LIB\10.0.17134.0\UM\X64\OLE32.LIB
C:\PROGRAM FILES (X86)\WINDOWS KITS\10\LIB\10.0.17134.0\UM\X64\OLEAUT32.LIB
C:\PROGRAM FILES (X86)\WINDOWS KITS\10\LIB\10.0.17134.0\UM\X64\UUID.LIB
C:\PROGRAM FILES (X86)\WINDOWS KITS\10\LIB\10.0.17134.0\UM\X64\ODBC32.LIB
C:\PROGRAM FILES (X86)\WINDOWS KITS\10\LIB\10.0.17134.0\UM\X64\ODBCCP32.LIB
D:\GITREPO\TOWERDEFENSE\TOWERDEFENSE\TOWERDEFENSE\X64\DEBUG\BIGTURRET.OBJ
D:\GITREPO\TOWERDEFENSE\TOWERDEFENSE\TOWERDEFENSE\X64\DEBUG\BOSSENEMY.OBJ
D:\GITREPO\TOWERDEFENSE\TOWERDEFENSE\TOWERDEFENSE\X64\DEBUG\ENEMY.OBJ
D:\GITREPO\TOWERDEFENSE\TOWERDEFENSE\TOWERDEFENSE\X64\DEBUG\FASTENEMY.OBJ
D:\GITREPO\TOWERDEFENSE\TOWERDEFENSE\TOWERDEFENSE\X64\DEBUG\GAMEDIRECTOR.OBJ
D:\GITREPO\TOWERDEFENSE\TOWERDEFENSE\TOWERDEFENSE\X64\DEBUG\GAMESTATE.OBJ
D:\GITREPO\TOWERDEFENSE\TOWERDEFENSE\TOWERDEFENSE\X64\DEBUG\MAIN.OBJ
D:\GITREPO\TOWERDEFENSE\TOWERDEFENSE\TOWERDEFENSE\X64\DEBUG\MEDIUMTURRET.OBJ
D:\GITREPO\TOWERDEFENSE\TOWERDEFENSE\TOWERDEFENSE\X64\DEBUG\NORMALENEMY.OBJ
D:\GITREPO\TOWERDEFENSE\TOWERDEFENSE\TOWERDEFENSE\X64\DEBUG\PLAYER.OBJ
D:\GITREPO\TOWERDEFENSE\TOWERDEFENSE\TOWERDEFENSE\X64\DEBUG\SMALLTURRET.OBJ
D:\GITREPO\TOWERDEFENSE\TOWERDEFENSE\TOWERDEFENSE\X64\DEBUG\STRONGENEMY.OBJ
D:\GITREPO\TOWERDEFENSE\TOWERDEFENSE\TOWERDEFENSE\X64\DEBUG\TURRETS.OBJ
D:\GITREPO\TOWERDEFENSE\TOWERDEFENSE\TOWERDEFENSE\X64\DEBUG\LOGGING.LIB
C:\WINDOWS\SYSTEM32\TZRES.DLL
C:\WINDOWS\GLOBALIZATION\SORTING\SORTDEFAULT.NLS
C:\PROGRAM FILES (X86)\MICROSOFT VISUAL STUDIO\2017\COMMUNITY\VC\TOOLS\MSVC\14.15.26726\LIB\X64\MSVCPRTD.LIB
C:\PROGRAM FILES (X86)\MICROSOFT VISUAL STUDIO\2017\COMMUNITY\VC\TOOLS\MSVC\14.15.26726\LIB\X64\MSVCRTD.LIB
C:\PROGRAM FILES (X86)\MICROSOFT VISUAL STUDIO\2017\COMMUNITY\VC\TOOLS\MSVC\14.15.26726\LIB\X64\OLDNAMES.LIB
C:\PROGRAM FILES (X86)\MICROSOFT VISUAL STUDIO\2017\COMMUNITY\VC\TOOLS\MSVC\14.15.26726\LIB\X64\VCRUNTIMED.LIB
C:\PROGRAM FILES (X86)\WINDOWS KITS\10\LIB\10.0.17134.0\UCRT\X64\UCRTD.LIB
^D:\GITREPO\CLONE\TOWERDEFENSE\TOWERDEFENSE\X64\DEBUG\BIGTURRET.OBJ|D:\GITREPO\CLONE\TOWERDEFENSE\TOWERDEFENSE\X64\DEBUG\BOSSENEMY.OBJ|D:\GITREPO\CLONE\TOWERDEFENSE\TOWERDEFENSE\X64\DEBUG\ENEMY.OBJ|D:\GITREPO\CLONE\TOWERDEFENSE\TOWERDEFENSE\X64\DEBUG\FASTENEMY.OBJ|D:\GITREPO\CLONE\TOWERDEFENSE\TOWERDEFENSE\X64\DEBUG\GAMEDIRECTOR.OBJ|D:\GITREPO\CLONE\TOWERDEFENSE\TOWERDEFENSE\X64\DEBUG\GAMESTATE.OBJ|D:\GITREPO\CLONE\TOWERDEFENSE\TOWERDEFENSE\X64\DEBUG\LOGGING.LIB|D:\GITREPO\CLONE\TOWERDEFENSE\TOWERDEFENSE\X64\DEBUG\MAIN.OBJ|D:\GITREPO\CLONE\TOWERDEFENSE\TOWERDEFENSE\X64\DEBUG\MEDIUMTURRET.OBJ|D:\GITREPO\CLONE\TOWERDEFENSE\TOWERDEFENSE\X64\DEBUG\NORMALENEMY.OBJ|D:\GITREPO\CLONE\TOWERDEFENSE\TOWERDEFENSE\X64\DEBUG\PLAYER.OBJ|D:\GITREPO\CLONE\TOWERDEFENSE\TOWERDEFENSE\X64\DEBUG\SMALLTURRET.OBJ|D:\GITREPO\CLONE\TOWERDEFENSE\TOWERDEFENSE\X64\DEBUG\STRONGENEMY.OBJ|D:\GITREPO\CLONE\TOWERDEFENSE\TOWERDEFENSE\X64\DEBUG\TURRETS.OBJ
D:\GITREPO\CLONE\TOWERDEFENSE\TOWERDEFENSE\SFML\LIB\SFML-SYSTEM-D.LIB
D:\GITREPO\CLONE\TOWERDEFENSE\TOWERDEFENSE\SFML\LIB\SFML-GRAPHICS-D.LIB
D:\GITREPO\CLONE\TOWERDEFENSE\TOWERDEFENSE\SFML\LIB\SFML-AUDIO-D.LIB
D:\GITREPO\CLONE\TOWERDEFENSE\TOWERDEFENSE\SFML\LIB\SFML-NETWORK-D.LIB
D:\GITREPO\CLONE\TOWERDEFENSE\TOWERDEFENSE\SFML\LIB\SFML-WINDOW-D.LIB
C:\PROGRAM FILES (X86)\WINDOWS KITS\10\LIB\10.0.17134.0\UM\X64\KERNEL32.LIB
C:\PROGRAM FILES (X86)\WINDOWS KITS\10\LIB\10.0.17134.0\UM\X64\USER32.LIB
C:\PROGRAM FILES (X86)\WINDOWS KITS\10\LIB\10.0.17134.0\UM\X64\GDI32.LIB
C:\PROGRAM FILES (X86)\WINDOWS KITS\10\LIB\10.0.17134.0\UM\X64\WINSPOOL.LIB
C:\PROGRAM FILES (X86)\WINDOWS KITS\10\LIB\10.0.17134.0\UM\X64\COMDLG32.LIB
C:\PROGRAM FILES (X86)\WINDOWS KITS\10\LIB\10.0.17134.0\UM\X64\ADVAPI32.LIB
C:\PROGRAM FILES (X86)\WINDOWS KITS\10\LIB\10.0.17134.0\UM\X64\SHELL32.LIB
C:\PROGRAM FILES (X86)\WINDOWS KITS\10\LIB\10.0.17134.0\UM\X64\OLE32.LIB
C:\PROGRAM FILES (X86)\WINDOWS KITS\10\LIB\10.0.17134.0\UM\X64\OLEAUT32.LIB
C:\PROGRAM FILES (X86)\WINDOWS KITS\10\LIB\10.0.17134.0\UM\X64\UUID.LIB
C:\PROGRAM FILES (X86)\WINDOWS KITS\10\LIB\10.0.17134.0\UM\X64\ODBC32.LIB
C:\PROGRAM FILES (X86)\WINDOWS KITS\10\LIB\10.0.17134.0\UM\X64\ODBCCP32.LIB
D:\GITREPO\CLONE\TOWERDEFENSE\TOWERDEFENSE\X64\DEBUG\BIGTURRET.OBJ
D:\GITREPO\CLONE\TOWERDEFENSE\TOWERDEFENSE\X64\DEBUG\BOSSENEMY.OBJ
D:\GITREPO\CLONE\TOWERDEFENSE\TOWERDEFENSE\X64\DEBUG\ENEMY.OBJ
D:\GITREPO\CLONE\TOWERDEFENSE\TOWERDEFENSE\X64\DEBUG\FASTENEMY.OBJ
D:\GITREPO\CLONE\TOWERDEFENSE\TOWERDEFENSE\X64\DEBUG\GAMEDIRECTOR.OBJ
D:\GITREPO\CLONE\TOWERDEFENSE\TOWERDEFENSE\X64\DEBUG\GAMESTATE.OBJ
D:\GITREPO\CLONE\TOWERDEFENSE\TOWERDEFENSE\X64\DEBUG\MAIN.OBJ
D:\GITREPO\CLONE\TOWERDEFENSE\TOWERDEFENSE\X64\DEBUG\MEDIUMTURRET.OBJ
D:\GITREPO\CLONE\TOWERDEFENSE\TOWERDEFENSE\X64\DEBUG\NORMALENEMY.OBJ
D:\GITREPO\CLONE\TOWERDEFENSE\TOWERDEFENSE\X64\DEBUG\PLAYER.OBJ
D:\GITREPO\CLONE\TOWERDEFENSE\TOWERDEFENSE\X64\DEBUG\SMALLTURRET.OBJ
D:\GITREPO\CLONE\TOWERDEFENSE\TOWERDEFENSE\X64\DEBUG\STRONGENEMY.OBJ
D:\GITREPO\CLONE\TOWERDEFENSE\TOWERDEFENSE\X64\DEBUG\TURRETS.OBJ
D:\GITREPO\CLONE\TOWERDEFENSE\TOWERDEFENSE\X64\DEBUG\LOGGING.LIB
C:\WINDOWS\SYSTEM32\TZRES.DLL
C:\WINDOWS\GLOBALIZATION\SORTING\SORTDEFAULT.NLS
C:\PROGRAM FILES (X86)\MICROSOFT VISUAL STUDIO\2017\COMMUNITY\VC\TOOLS\MSVC\14.15.26726\LIB\X64\MSVCPRTD.LIB
C:\PROGRAM FILES (X86)\MICROSOFT VISUAL STUDIO\2017\COMMUNITY\VC\TOOLS\MSVC\14.15.26726\LIB\X64\MSVCRTD.LIB
C:\PROGRAM FILES (X86)\MICROSOFT VISUAL STUDIO\2017\COMMUNITY\VC\TOOLS\MSVC\14.15.26726\LIB\X64\OLDNAMES.LIB
C:\PROGRAM FILES (X86)\MICROSOFT VISUAL STUDIO\2017\COMMUNITY\VC\TOOLS\MSVC\14.15.26726\LIB\X64\VCRUNTIMED.LIB
C:\PROGRAM FILES (X86)\WINDOWS KITS\10\LIB\10.0.17134.0\UCRT\X64\UCRTD.LIB
C:\PROGRAM FILES (X86)\MICROSOFT VISUAL STUDIO\2017\COMMUNITY\VC\TOOLS\MSVC\14.15.26726\BIN\HOSTX86\X64\LINK.EXE
C:\PROGRAM FILES (X86)\WINDOWS KITS\10\BIN\10.0.17134.0\X86\RC.EXE
C:\PROGRAM FILES (X86)\MICROSOFT VISUAL STUDIO\2017\COMMUNITY\VC\TOOLS\MSVC\14.15.26726\BIN\HOSTX86\X86\CVTRES.EXE
