^D:\GITREPO\TOWERDEFENSE\TOWERDEFENSE\TOWERDEFENSE\X64\DEBUG\BIGTURRET.OBJ|D:\GITREPO\TOWERDEFENSE\TOWERDEFENSE\TOWERDEFENSE\X64\DEBUG\BOSSENEMY.OBJ|D:\GITREPO\TOWERDEFENSE\TOWERDEFENSE\TOWERDEFENSE\X64\DEBUG\ENEMY.OBJ|D:\GITREPO\TOWERDEFENSE\TOWERDEFENSE\TOWERDEFENSE\X64\DEBUG\FASTENEMY.OBJ|D:\GITREPO\TOWERDEFENSE\TOWERDEFENSE\TOWERDEFENSE\X64\DEBUG\GAMEDIRECTOR.OBJ|D:\GITREPO\TOWERDEFENSE\TOWERDEFENSE\TOWERDEFENSE\X64\DEBUG\GAMESTATE.OBJ|D:\GITREPO\TOWERDEFENSE\TOWERDEFENSE\TOWERDEFENSE\X64\DEBUG\LOGGING.LIB|D:\GITREPO\TOWERDEFENSE\TOWERDEFENSE\TOWERDEFENSE\X64\DEBUG\MAIN.OBJ|D:\GITREPO\TOWERDEFENSE\TOWERDEFENSE\TOWERDEFENSE\X64\DEBUG\MEDIUMTURRET.OBJ|D:\GITREPO\TOWERDEFENSE\TOWERDEFENSE\TOWERDEFENSE\X64\DEBUG\NORMALENEMY.OBJ|D:\GITREPO\TOWERDEFENSE\TOWERDEFENSE\TOWERDEFENSE\X64\DEBUG\PLAYER.OBJ|D:\GITREPO\TOWERDEFENSE\TOWERDEFENSE\TOWERDEFENSE\X64\DEBUG\SMALLTURRET.OBJ|D:\GITREPO\TOWERDEFENSE\TOWERDEFENSE\TOWERDEFENSE\X64\DEBUG\STRONGENEMY.OBJ|D:\GITREPO\TOWERDEFENSE\TOWERDEFENSE\TOWERDEFENSE\X64\DEBUG\TURRETS.OBJ
D:\GITREPO\TOWERDEFENSE\TOWERDEFENSE\TOWERDEFENSE\X64\DEBUG\TOWERDEFENSE.EXE
D:\GITREPO\TOWERDEFENSE\TOWERDEFENSE\TOWERDEFENSE\X64\DEBUG\TOWERDEFENSE.ILK
D:\GITREPO\TOWERDEFENSE\TOWERDEFENSE\TOWERDEFENSE\X64\DEBUG\TOWERDEFENSE.PDB
^D:\GITREPO\CLONE\TOWERDEFENSE\TOWERDEFENSE\X64\DEBUG\BIGTURRET.OBJ|D:\GITREPO\CLONE\TOWERDEFENSE\TOWERDEFENSE\X64\DEBUG\BOSSENEMY.OBJ|D:\GITREPO\CLONE\TOWERDEFENSE\TOWERDEFENSE\X64\DEBUG\ENEMY.OBJ|D:\GITREPO\CLONE\TOWERDEFENSE\TOWERDEFENSE\X64\DEBUG\FASTENEMY.OBJ|D:\GITREPO\CLONE\TOWERDEFENSE\TOWERDEFENSE\X64\DEBUG\GAMEDIRECTOR.OBJ|D:\GITREPO\CLONE\TOWERDEFENSE\TOWERDEFENSE\X64\DEBUG\GAMESTATE.OBJ|D:\GITREPO\CLONE\TOWERDEFENSE\TOWERDEFENSE\X64\DEBUG\LOGGING.LIB|D:\GITREPO\CLONE\TOWERDEFENSE\TOWERDEFENSE\X64\DEBUG\MAIN.OBJ|D:\GITREPO\CLONE\TOWERDEFENSE\TOWERDEFENSE\X64\DEBUG\MEDIUMTURRET.OBJ|D:\GITREPO\CLONE\TOWERDEFENSE\TOWERDEFENSE\X64\DEBUG\NORMALENEMY.OBJ|D:\GITREPO\CLONE\TOWERDEFENSE\TOWERDEFENSE\X64\DEBUG\PLAYER.OBJ|D:\GITREPO\CLONE\TOWERDEFENSE\TOWERDEFENSE\X64\DEBUG\SMALLTURRET.OBJ|D:\GITREPO\CLONE\TOWERDEFENSE\TOWERDEFENSE\X64\DEBUG\STRONGENEMY.OBJ|D:\GITREPO\CLONE\TOWERDEFENSE\TOWERDEFENSE\X64\DEBUG\TURRETS.OBJ
D:\GITREPO\CLONE\TOWERDEFENSE\TOWERDEFENSE\X64\DEBUG\TOWERDEFENSE.EXE
D:\GITREPO\CLONE\TOWERDEFENSE\TOWERDEFENSE\X64\DEBUG\TOWERDEFENSE.ILK
D:\GITREPO\CLONE\TOWERDEFENSE\TOWERDEFENSE\X64\DEBUG\TOWERDEFENSE.PDB
