^D:\GITREPO\TOWERDEFENSE\TOWERDEFENSE\BIGTURRET.CPP|D:\GITREPO\TOWERDEFENSE\TOWERDEFENSE\BOSSENEMY.CPP|D:\GITREPO\TOWERDEFENSE\TOWERDEFENSE\ENEMY.CPP|D:\GITREPO\TOWERDEFENSE\TOWERDEFENSE\FASTENEMY.CPP|D:\GITREPO\TOWERDEFENSE\TOWERDEFENSE\GAMEDIRECTOR.CPP|D:\GITREPO\TOWERDEFENSE\TOWERDEFENSE\GAMESTATE.CPP|D:\GITREPO\TOWERDEFENSE\TOWERDEFENSE\MAIN.CPP|D:\GITREPO\TOWERDEFENSE\TOWERDEFENSE\MEDIUMTURRET.CPP|D:\GITREPO\TOWERDEFENSE\TOWERDEFENSE\NORMALENEMY.CPP|D:\GITREPO\TOWERDEFENSE\TOWERDEFENSE\PLAYER.CPP|D:\GITREPO\TOWERDEFENSE\TOWERDEFENSE\SMALLTURRET.CPP|D:\GITREPO\TOWERDEFENSE\TOWERDEFENSE\STRONGENEMY.CPP|D:\GITREPO\TOWERDEFENSE\TOWERDEFENSE\TURRETS.CPP
D:\GITREPO\TOWERDEFENSE\TOWERDEFENSE\DEBUG\VC141.PDB
D:\GITREPO\TOWERDEFENSE\TOWERDEFENSE\DEBUG\VC141.IDB
D:\GITREPO\TOWERDEFENSE\TOWERDEFENSE\DEBUG\TURRETS.OBJ
D:\GITREPO\TOWERDEFENSE\TOWERDEFENSE\DEBUG\STRONGENEMY.OBJ
D:\GITREPO\TOWERDEFENSE\TOWERDEFENSE\DEBUG\SMALLTURRET.OBJ
D:\GITREPO\TOWERDEFENSE\TOWERDEFENSE\DEBUG\PLAYER.OBJ
D:\GITREPO\TOWERDEFENSE\TOWERDEFENSE\DEBUG\NORMALENEMY.OBJ
D:\GITREPO\TOWERDEFENSE\TOWERDEFENSE\DEBUG\MEDIUMTURRET.OBJ
D:\GITREPO\TOWERDEFENSE\TOWERDEFENSE\DEBUG\MAIN.OBJ
D:\GITREPO\TOWERDEFENSE\TOWERDEFENSE\DEBUG\GAMESTATE.OBJ
D:\GITREPO\TOWERDEFENSE\TOWERDEFENSE\DEBUG\FASTENEMY.OBJ
D:\GITREPO\TOWERDEFENSE\TOWERDEFENSE\DEBUG\ENEMY.OBJ
D:\GITREPO\TOWERDEFENSE\TOWERDEFENSE\DEBUG\BOSSENEMY.OBJ
D:\GITREPO\TOWERDEFENSE\TOWERDEFENSE\DEBUG\BIGTURRET.OBJ
^D:\GITREPO\TOWERDEFENSE\TOWERDEFENSE\BIGTURRET.CPP
D:\GITREPO\TOWERDEFENSE\TOWERDEFENSE\DEBUG\BIGTURRET.OBJ
^D:\GITREPO\TOWERDEFENSE\TOWERDEFENSE\BOSSENEMY.CPP
D:\GITREPO\TOWERDEFENSE\TOWERDEFENSE\DEBUG\BOSSENEMY.OBJ
^D:\GITREPO\TOWERDEFENSE\TOWERDEFENSE\ENEMY.CPP
D:\GITREPO\TOWERDEFENSE\TOWERDEFENSE\DEBUG\ENEMY.OBJ
^D:\GITREPO\TOWERDEFENSE\TOWERDEFENSE\FASTENEMY.CPP
D:\GITREPO\TOWERDEFENSE\TOWERDEFENSE\DEBUG\FASTENEMY.OBJ
^D:\GITREPO\TOWERDEFENSE\TOWERDEFENSE\GAMESTATE.CPP
D:\GITREPO\TOWERDEFENSE\TOWERDEFENSE\DEBUG\GAMESTATE.OBJ
^D:\GITREPO\TOWERDEFENSE\TOWERDEFENSE\MEDIUMTURRET.CPP
D:\GITREPO\TOWERDEFENSE\TOWERDEFENSE\DEBUG\MEDIUMTURRET.OBJ
^D:\GITREPO\TOWERDEFENSE\TOWERDEFENSE\NORMALENEMY.CPP
D:\GITREPO\TOWERDEFENSE\TOWERDEFENSE\DEBUG\NORMALENEMY.OBJ
^D:\GITREPO\TOWERDEFENSE\TOWERDEFENSE\PLAYER.CPP
D:\GITREPO\TOWERDEFENSE\TOWERDEFENSE\DEBUG\PLAYER.OBJ
^D:\GITREPO\TOWERDEFENSE\TOWERDEFENSE\SMALLTURRET.CPP
D:\GITREPO\TOWERDEFENSE\TOWERDEFENSE\DEBUG\SMALLTURRET.OBJ
^D:\GITREPO\TOWERDEFENSE\TOWERDEFENSE\STRONGENEMY.CPP
D:\GITREPO\TOWERDEFENSE\TOWERDEFENSE\DEBUG\STRONGENEMY.OBJ
^D:\GITREPO\TOWERDEFENSE\TOWERDEFENSE\TURRETS.CPP
D:\GITREPO\TOWERDEFENSE\TOWERDEFENSE\DEBUG\TURRETS.OBJ
^D:\GITREPO\TOWERDEFENSE\TOWERDEFENSE\GAMEDIRECTOR.CPP|D:\GITREPO\TOWERDEFENSE\TOWERDEFENSE\MAIN.CPP
D:\GITREPO\TOWERDEFENSE\TOWERDEFENSE\DEBUG\VC141.PDB
D:\GITREPO\TOWERDEFENSE\TOWERDEFENSE\DEBUG\VC141.IDB
D:\GITREPO\TOWERDEFENSE\TOWERDEFENSE\DEBUG\MAIN.OBJ
D:\GITREPO\TOWERDEFENSE\TOWERDEFENSE\DEBUG\GAMEDIRECTOR.OBJ
^D:\GITREPO\TOWERDEFENSE\TOWERDEFENSE\MAIN.CPP
D:\GITREPO\TOWERDEFENSE\TOWERDEFENSE\DEBUG\VC141.PDB
^D:\GITREPO\TOWERDEFENSE\TOWERDEFENSE\GAMEDIRECTOR.CPP
D:\GITREPO\TOWERDEFENSE\TOWERDEFENSE\DEBUG\VC141.PDB
D:\GITREPO\TOWERDEFENSE\TOWERDEFENSE\DEBUG\VC141.IDB
D:\GITREPO\TOWERDEFENSE\TOWERDEFENSE\DEBUG\GAMEDIRECTOR.OBJ
^D:\GITREPO\TOWERDEFENCE\TOWERDEFENSE\TOWERDEFENSE\BIGTURRET.CPP|D:\GITREPO\TOWERDEFENCE\TOWERDEFENSE\TOWERDEFENSE\BOSSENEMY.CPP|D:\GITREPO\TOWERDEFENCE\TOWERDEFENSE\TOWERDEFENSE\ENEMY.CPP|D:\GITREPO\TOWERDEFENCE\TOWERDEFENSE\TOWERDEFENSE\FASTENEMY.CPP|D:\GITREPO\TOWERDEFENCE\TOWERDEFENSE\TOWERDEFENSE\GAMEDIRECTOR.CPP|D:\GITREPO\TOWERDEFENCE\TOWERDEFENSE\TOWERDEFENSE\GAMESTATE.CPP|D:\GITREPO\TOWERDEFENCE\TOWERDEFENSE\TOWERDEFENSE\MAIN.CPP|D:\GITREPO\TOWERDEFENCE\TOWERDEFENSE\TOWERDEFENSE\MEDIUMTURRET.CPP|D:\GITREPO\TOWERDEFENCE\TOWERDEFENSE\TOWERDEFENSE\NORMALENEMY.CPP|D:\GITREPO\TOWERDEFENCE\TOWERDEFENSE\TOWERDEFENSE\PLAYER.CPP|D:\GITREPO\TOWERDEFENCE\TOWERDEFENSE\TOWERDEFENSE\SMALLTURRET.CPP|D:\GITREPO\TOWERDEFENCE\TOWERDEFENSE\TOWERDEFENSE\STRONGENEMY.CPP|D:\GITREPO\TOWERDEFENCE\TOWERDEFENSE\TOWERDEFENSE\TURRETS.CPP
D:\GITREPO\TOWERDEFENCE\TOWERDEFENSE\TOWERDEFENSE\DEBUG\VC141.PDB
D:\GITREPO\TOWERDEFENCE\TOWERDEFENSE\TOWERDEFENSE\DEBUG\VC141.IDB
D:\GITREPO\TOWERDEFENCE\TOWERDEFENSE\TOWERDEFENSE\DEBUG\TURRETS.OBJ
D:\GITREPO\TOWERDEFENCE\TOWERDEFENSE\TOWERDEFENSE\DEBUG\STRONGENEMY.OBJ
D:\GITREPO\TOWERDEFENCE\TOWERDEFENSE\TOWERDEFENSE\DEBUG\SMALLTURRET.OBJ
D:\GITREPO\TOWERDEFENCE\TOWERDEFENSE\TOWERDEFENSE\DEBUG\PLAYER.OBJ
D:\GITREPO\TOWERDEFENCE\TOWERDEFENSE\TOWERDEFENSE\DEBUG\NORMALENEMY.OBJ
D:\GITREPO\TOWERDEFENCE\TOWERDEFENSE\TOWERDEFENSE\DEBUG\MEDIUMTURRET.OBJ
D:\GITREPO\TOWERDEFENCE\TOWERDEFENSE\TOWERDEFENSE\DEBUG\MAIN.OBJ
D:\GITREPO\TOWERDEFENCE\TOWERDEFENSE\TOWERDEFENSE\DEBUG\GAMESTATE.OBJ
D:\GITREPO\TOWERDEFENCE\TOWERDEFENSE\TOWERDEFENSE\DEBUG\GAMEDIRECTOR.OBJ
D:\GITREPO\TOWERDEFENCE\TOWERDEFENSE\TOWERDEFENSE\DEBUG\FASTENEMY.OBJ
D:\GITREPO\TOWERDEFENCE\TOWERDEFENSE\TOWERDEFENSE\DEBUG\ENEMY.OBJ
D:\GITREPO\TOWERDEFENCE\TOWERDEFENSE\TOWERDEFENSE\DEBUG\BOSSENEMY.OBJ
D:\GITREPO\TOWERDEFENCE\TOWERDEFENSE\TOWERDEFENSE\DEBUG\BIGTURRET.OBJ
^D:\GITREPO\TOWERDEFENCE\TOWERDEFENSE\TOWERDEFENSE\BIGTURRET.CPP
D:\GITREPO\TOWERDEFENCE\TOWERDEFENSE\TOWERDEFENSE\DEBUG\VC141.PDB
^D:\GITREPO\TOWERDEFENCE\TOWERDEFENSE\TOWERDEFENSE\BOSSENEMY.CPP
D:\GITREPO\TOWERDEFENCE\TOWERDEFENSE\TOWERDEFENSE\DEBUG\VC141.PDB
^D:\GITREPO\TOWERDEFENCE\TOWERDEFENSE\TOWERDEFENSE\ENEMY.CPP
D:\GITREPO\TOWERDEFENCE\TOWERDEFENSE\TOWERDEFENSE\DEBUG\VC141.PDB
^D:\GITREPO\TOWERDEFENCE\TOWERDEFENSE\TOWERDEFENSE\FASTENEMY.CPP
D:\GITREPO\TOWERDEFENCE\TOWERDEFENSE\TOWERDEFENSE\DEBUG\VC141.PDB
^D:\GITREPO\TOWERDEFENCE\TOWERDEFENSE\TOWERDEFENSE\GAMEDIRECTOR.CPP
D:\GITREPO\TOWERDEFENCE\TOWERDEFENSE\TOWERDEFENSE\DEBUG\VC141.PDB
^D:\GITREPO\TOWERDEFENCE\TOWERDEFENSE\TOWERDEFENSE\GAMESTATE.CPP
D:\GITREPO\TOWERDEFENCE\TOWERDEFENSE\TOWERDEFENSE\DEBUG\VC141.PDB
^D:\GITREPO\TOWERDEFENCE\TOWERDEFENSE\TOWERDEFENSE\MAIN.CPP
D:\GITREPO\TOWERDEFENCE\TOWERDEFENSE\TOWERDEFENSE\DEBUG\VC141.PDB
^D:\GITREPO\TOWERDEFENCE\TOWERDEFENSE\TOWERDEFENSE\MEDIUMTURRET.CPP
D:\GITREPO\TOWERDEFENCE\TOWERDEFENSE\TOWERDEFENSE\DEBUG\VC141.PDB
^D:\GITREPO\TOWERDEFENCE\TOWERDEFENSE\TOWERDEFENSE\NORMALENEMY.CPP
D:\GITREPO\TOWERDEFENCE\TOWERDEFENSE\TOWERDEFENSE\DEBUG\VC141.PDB
^D:\GITREPO\TOWERDEFENCE\TOWERDEFENSE\TOWERDEFENSE\PLAYER.CPP
D:\GITREPO\TOWERDEFENCE\TOWERDEFENSE\TOWERDEFENSE\DEBUG\VC141.PDB
^D:\GITREPO\TOWERDEFENCE\TOWERDEFENSE\TOWERDEFENSE\SMALLTURRET.CPP
D:\GITREPO\TOWERDEFENCE\TOWERDEFENSE\TOWERDEFENSE\DEBUG\VC141.PDB
^D:\GITREPO\TOWERDEFENCE\TOWERDEFENSE\TOWERDEFENSE\STRONGENEMY.CPP
D:\GITREPO\TOWERDEFENCE\TOWERDEFENSE\TOWERDEFENSE\DEBUG\VC141.PDB
^D:\GITREPO\TOWERDEFENCE\TOWERDEFENSE\TOWERDEFENSE\TURRETS.CPP
D:\GITREPO\TOWERDEFENCE\TOWERDEFENSE\TOWERDEFENSE\DEBUG\VC141.PDB
^C:\FACULTATE\ANO DOS\TOWERDEFENSE\TOWERDEFENSE\TOWERDEFENSE\BIGTURRET.CPP|C:\FACULTATE\ANO DOS\TOWERDEFENSE\TOWERDEFENSE\TOWERDEFENSE\BOSSENEMY.CPP|C:\FACULTATE\ANO DOS\TOWERDEFENSE\TOWERDEFENSE\TOWERDEFENSE\ENEMY.CPP|C:\FACULTATE\ANO DOS\TOWERDEFENSE\TOWERDEFENSE\TOWERDEFENSE\FASTENEMY.CPP|C:\FACULTATE\ANO DOS\TOWERDEFENSE\TOWERDEFENSE\TOWERDEFENSE\GAMEDIRECTOR.CPP|C:\FACULTATE\ANO DOS\TOWERDEFENSE\TOWERDEFENSE\TOWERDEFENSE\GAMESTATE.CPP|C:\FACULTATE\ANO DOS\TOWERDEFENSE\TOWERDEFENSE\TOWERDEFENSE\MAIN.CPP|C:\FACULTATE\ANO DOS\TOWERDEFENSE\TOWERDEFENSE\TOWERDEFENSE\MEDIUMTURRET.CPP|C:\FACULTATE\ANO DOS\TOWERDEFENSE\TOWERDEFENSE\TOWERDEFENSE\NORMALENEMY.CPP|C:\FACULTATE\ANO DOS\TOWERDEFENSE\TOWERDEFENSE\TOWERDEFENSE\PLAYER.CPP|C:\FACULTATE\ANO DOS\TOWERDEFENSE\TOWERDEFENSE\TOWERDEFENSE\SMALLTURRET.CPP|C:\FACULTATE\ANO DOS\TOWERDEFENSE\TOWERDEFENSE\TOWERDEFENSE\STRONGENEMY.CPP|C:\FACULTATE\ANO DOS\TOWERDEFENSE\TOWERDEFENSE\TOWERDEFENSE\TURRETS.CPP
C:\FACULTATE\ANO DOS\TOWERDEFENSE\TOWERDEFENSE\TOWERDEFENSE\DEBUG\VC141.PDB
C:\FACULTATE\ANO DOS\TOWERDEFENSE\TOWERDEFENSE\TOWERDEFENSE\DEBUG\VC141.IDB
C:\FACULTATE\ANO DOS\TOWERDEFENSE\TOWERDEFENSE\TOWERDEFENSE\DEBUG\TURRETS.OBJ
C:\FACULTATE\ANO DOS\TOWERDEFENSE\TOWERDEFENSE\TOWERDEFENSE\DEBUG\STRONGENEMY.OBJ
C:\FACULTATE\ANO DOS\TOWERDEFENSE\TOWERDEFENSE\TOWERDEFENSE\DEBUG\SMALLTURRET.OBJ
C:\FACULTATE\ANO DOS\TOWERDEFENSE\TOWERDEFENSE\TOWERDEFENSE\DEBUG\PLAYER.OBJ
C:\FACULTATE\ANO DOS\TOWERDEFENSE\TOWERDEFENSE\TOWERDEFENSE\DEBUG\NORMALENEMY.OBJ
C:\FACULTATE\ANO DOS\TOWERDEFENSE\TOWERDEFENSE\TOWERDEFENSE\DEBUG\MEDIUMTURRET.OBJ
C:\FACULTATE\ANO DOS\TOWERDEFENSE\TOWERDEFENSE\TOWERDEFENSE\DEBUG\MAIN.OBJ
C:\FACULTATE\ANO DOS\TOWERDEFENSE\TOWERDEFENSE\TOWERDEFENSE\DEBUG\GAMESTATE.OBJ
C:\FACULTATE\ANO DOS\TOWERDEFENSE\TOWERDEFENSE\TOWERDEFENSE\DEBUG\GAMEDIRECTOR.OBJ
C:\FACULTATE\ANO DOS\TOWERDEFENSE\TOWERDEFENSE\TOWERDEFENSE\DEBUG\FASTENEMY.OBJ
C:\FACULTATE\ANO DOS\TOWERDEFENSE\TOWERDEFENSE\TOWERDEFENSE\DEBUG\ENEMY.OBJ
C:\FACULTATE\ANO DOS\TOWERDEFENSE\TOWERDEFENSE\TOWERDEFENSE\DEBUG\BOSSENEMY.OBJ
C:\FACULTATE\ANO DOS\TOWERDEFENSE\TOWERDEFENSE\TOWERDEFENSE\DEBUG\BIGTURRET.OBJ
^C:\FACULTATE\ANO DOS\TOWERDEFENSE\TOWERDEFENSE\TOWERDEFENSE\BIGTURRET.CPP
C:\FACULTATE\ANO DOS\TOWERDEFENSE\TOWERDEFENSE\TOWERDEFENSE\DEBUG\VC141.PDB
^C:\FACULTATE\ANO DOS\TOWERDEFENSE\TOWERDEFENSE\TOWERDEFENSE\BOSSENEMY.CPP
C:\FACULTATE\ANO DOS\TOWERDEFENSE\TOWERDEFENSE\TOWERDEFENSE\DEBUG\VC141.PDB
^C:\FACULTATE\ANO DOS\TOWERDEFENSE\TOWERDEFENSE\TOWERDEFENSE\ENEMY.CPP
C:\FACULTATE\ANO DOS\TOWERDEFENSE\TOWERDEFENSE\TOWERDEFENSE\DEBUG\VC141.PDB
^C:\FACULTATE\ANO DOS\TOWERDEFENSE\TOWERDEFENSE\TOWERDEFENSE\FASTENEMY.CPP
C:\FACULTATE\ANO DOS\TOWERDEFENSE\TOWERDEFENSE\TOWERDEFENSE\DEBUG\VC141.PDB
^C:\FACULTATE\ANO DOS\TOWERDEFENSE\TOWERDEFENSE\TOWERDEFENSE\GAMEDIRECTOR.CPP
C:\FACULTATE\ANO DOS\TOWERDEFENSE\TOWERDEFENSE\TOWERDEFENSE\DEBUG\VC141.PDB
^C:\FACULTATE\ANO DOS\TOWERDEFENSE\TOWERDEFENSE\TOWERDEFENSE\GAMESTATE.CPP
C:\FACULTATE\ANO DOS\TOWERDEFENSE\TOWERDEFENSE\TOWERDEFENSE\DEBUG\VC141.PDB
^C:\FACULTATE\ANO DOS\TOWERDEFENSE\TOWERDEFENSE\TOWERDEFENSE\MAIN.CPP
C:\FACULTATE\ANO DOS\TOWERDEFENSE\TOWERDEFENSE\TOWERDEFENSE\DEBUG\VC141.PDB
^C:\FACULTATE\ANO DOS\TOWERDEFENSE\TOWERDEFENSE\TOWERDEFENSE\MEDIUMTURRET.CPP
C:\FACULTATE\ANO DOS\TOWERDEFENSE\TOWERDEFENSE\TOWERDEFENSE\DEBUG\VC141.PDB
^C:\FACULTATE\ANO DOS\TOWERDEFENSE\TOWERDEFENSE\TOWERDEFENSE\NORMALENEMY.CPP
C:\FACULTATE\ANO DOS\TOWERDEFENSE\TOWERDEFENSE\TOWERDEFENSE\DEBUG\VC141.PDB
^C:\FACULTATE\ANO DOS\TOWERDEFENSE\TOWERDEFENSE\TOWERDEFENSE\PLAYER.CPP
C:\FACULTATE\ANO DOS\TOWERDEFENSE\TOWERDEFENSE\TOWERDEFENSE\DEBUG\VC141.PDB
^C:\FACULTATE\ANO DOS\TOWERDEFENSE\TOWERDEFENSE\TOWERDEFENSE\SMALLTURRET.CPP
C:\FACULTATE\ANO DOS\TOWERDEFENSE\TOWERDEFENSE\TOWERDEFENSE\DEBUG\VC141.PDB
^C:\FACULTATE\ANO DOS\TOWERDEFENSE\TOWERDEFENSE\TOWERDEFENSE\STRONGENEMY.CPP
C:\FACULTATE\ANO DOS\TOWERDEFENSE\TOWERDEFENSE\TOWERDEFENSE\DEBUG\VC141.PDB
^C:\FACULTATE\ANO DOS\TOWERDEFENSE\TOWERDEFENSE\TOWERDEFENSE\TURRETS.CPP
C:\FACULTATE\ANO DOS\TOWERDEFENSE\TOWERDEFENSE\TOWERDEFENSE\DEBUG\VC141.PDB
